{
  "$schema": "https://json-schema.org/draft-07/schema#",

  "type": "object",
  "required": ["fullName", "password", "emailAddress", "billingAddress", "country"],
  "properties": {
    "fullName": {"type": "string"},
    "password": {"type": "string", "minLength": 8},
    "emailAddress": {"type": "string", "format": "email"},
    "billingAddress": {"type": "string"},
    "country": {
      "enum": [
        "AD",
        "ES",
        "PT",
        "UK",
        "US"
      ]
    }
  }
}
